EESchema Schematic File Version 2
LIBS:power
LIBS:device
LIBS:transistors
LIBS:conn
LIBS:linear
LIBS:regul
LIBS:74xx
LIBS:cmos4000
LIBS:adc-dac
LIBS:memory
LIBS:xilinx
LIBS:microcontrollers
LIBS:dsp
LIBS:microchip
LIBS:analog_switches
LIBS:motorola
LIBS:texas
LIBS:intel
LIBS:audio
LIBS:interface
LIBS:digital-audio
LIBS:philips
LIBS:display
LIBS:cypress
LIBS:siliconi
LIBS:opto
LIBS:atmel
LIBS:contrib
LIBS:valves
LIBS:lt1963
LIBS:lt3015
LIBS:transfo-2
LIBS:AC-50VA-cache
EELAYER 25 0
EELAYER END
$Descr A3 16535 11693
encoding utf-8
Sheet 1 1
Title ""
Date ""
Rev ""
Comp ""
Comment1 ""
Comment2 ""
Comment3 ""
Comment4 ""
$EndDescr
$Comp
L Diode_Bridge D1
U 1 1 57DEDC63
P 8350 5150
F 0 "D1" H 8100 5450 50  0000 C CNN
F 1 "KBK6A" H 8300 5600 50  0000 C CNN
F 2 "myDiodes:bridge_7.62" H 8350 5150 50  0001 C CNN
F 3 "" H 8350 5150 50  0000 C CNN
	1    8350 5150
	1    0    0    -1  
$EndComp
$Comp
L CONN_01X02 P3
U 1 1 5825DA21
P 11750 5200
F 0 "P3" H 11750 5350 50  0000 C CNN
F 1 "OUTPUT" V 11850 5200 50  0000 C CNN
F 2 "myConnectors:NINIGI_NS25-W2P" H 11750 5200 50  0001 C CNN
F 3 "" H 11750 5200 50  0000 C CNN
	1    11750 5200
	1    0    0    -1  
$EndComp
$Comp
L CP C1
U 1 1 5825DF44
P 8850 5450
F 0 "C1" H 8875 5550 50  0000 L CNN
F 1 "4700µF 35V" H 8650 5350 50  0000 L CNN
F 2 "Capacitors_ThroughHole:C_Radial_D18_L36_P7.5" H 8888 5300 50  0001 C CNN
F 3 "" H 8850 5450 50  0000 C CNN
	1    8850 5450
	1    0    0    -1  
$EndComp
$Comp
L C C7
U 1 1 5825E17C
P 10650 5450
F 0 "C7" H 10675 5550 50  0000 L CNN
F 1 "100nF" H 10675 5350 50  0000 L CNN
F 2 "Capacitors_ThroughHole:C_Rect_L7_W2_P5" H 10688 5300 50  0001 C CNN
F 3 "" H 10650 5450 50  0000 C CNN
	1    10650 5450
	1    0    0    -1  
$EndComp
$Comp
L C C8
U 1 1 589A32A0
P 10950 5450
F 0 "C8" H 10975 5550 50  0000 L CNN
F 1 "100pF" H 10975 5350 50  0000 L CNN
F 2 "Capacitors_ThroughHole:C_Rect_L7_W2_P5" H 10988 5300 50  0001 C CNN
F 3 "" H 10950 5450 50  0000 C CNN
	1    10950 5450
	1    0    0    -1  
$EndComp
Connection ~ 10950 5750
Wire Wire Line
	10950 5750 10950 5600
Connection ~ 10950 5150
Wire Wire Line
	10950 5150 10950 5300
Wire Wire Line
	8350 5700 8350 5550
Wire Wire Line
	7250 5100 7300 5100
Wire Wire Line
	7300 5100 7300 4600
Wire Wire Line
	7300 4600 8350 4600
Wire Wire Line
	8350 4600 8350 4750
Wire Wire Line
	11400 5750 11400 5250
Wire Wire Line
	11400 5250 11550 5250
Wire Wire Line
	8750 5150 11550 5150
Wire Wire Line
	7850 5750 11400 5750
Wire Wire Line
	7850 5750 7850 5150
Wire Wire Line
	7850 5150 7950 5150
Wire Wire Line
	8850 5300 8850 5150
Connection ~ 8850 5150
Wire Wire Line
	8850 5600 8850 5750
Connection ~ 8850 5750
Wire Wire Line
	10650 5150 10650 5300
Connection ~ 10650 5150
Wire Wire Line
	10650 5750 10650 5600
Connection ~ 10650 5750
$Comp
L R R2
U 1 1 589ED74B
P 11250 5450
F 0 "R2" V 11330 5450 50  0000 C CNN
F 1 "10K" V 11250 5450 50  0000 C CNN
F 2 "Resistors_ThroughHole:Resistor_Horizontal_RM10mm" V 11180 5450 50  0001 C CNN
F 3 "" H 11250 5450 50  0000 C CNN
	1    11250 5450
	1    0    0    -1  
$EndComp
Wire Wire Line
	11250 5150 11250 5300
Connection ~ 11250 5150
Wire Wire Line
	11250 5600 11250 5750
Connection ~ 11250 5750
$Comp
L CP C2
U 1 1 58A9712D
P 9150 5450
F 0 "C2" H 9175 5550 50  0000 L CNN
F 1 "4700µF 35V" H 8950 5250 50  0000 L CNN
F 2 "Capacitors_ThroughHole:C_Radial_D18_L36_P7.5" H 9188 5300 50  0001 C CNN
F 3 "" H 9150 5450 50  0000 C CNN
	1    9150 5450
	1    0    0    -1  
$EndComp
Wire Wire Line
	9150 5300 9150 5150
Connection ~ 9150 5150
Wire Wire Line
	9150 5600 9150 5750
Connection ~ 9150 5750
$Comp
L CONN_01X02 P5
U 1 1 58A97AD6
P 7050 5150
F 0 "P5" H 7050 5300 50  0000 C CNN
F 1 "INPUT" V 7150 5150 50  0000 C CNN
F 2 "myConnectors:JST-B2P-VH" H 7050 5150 50  0001 C CNN
F 3 "" H 7050 5150 50  0000 C CNN
	1    7050 5150
	-1   0    0    1   
$EndComp
Wire Wire Line
	7250 5200 7300 5200
Wire Wire Line
	7300 5200 7300 5700
Wire Wire Line
	7300 5700 8350 5700
Connection ~ 9450 5150
Connection ~ 9450 5750
Wire Wire Line
	9450 5600 9450 5750
Wire Wire Line
	9450 5300 9450 5150
$Comp
L CP C3
U 1 1 59C7BE6F
P 9450 5450
F 0 "C3" H 9475 5550 50  0000 L CNN
F 1 "4700µF 35V" H 9250 5350 50  0000 L CNN
F 2 "Capacitors_ThroughHole:C_Radial_D18_L36_P7.5" H 9488 5300 50  0001 C CNN
F 3 "" H 9450 5450 50  0000 C CNN
	1    9450 5450
	1    0    0    -1  
$EndComp
$Comp
L CP C4
U 1 1 59C93705
P 9750 5450
F 0 "C4" H 9775 5550 50  0000 L CNN
F 1 "4700µF 35V" H 9550 5250 50  0000 L CNN
F 2 "Capacitors_ThroughHole:C_Radial_D18_L36_P7.5" H 9788 5300 50  0001 C CNN
F 3 "" H 9750 5450 50  0000 C CNN
	1    9750 5450
	1    0    0    -1  
$EndComp
$Comp
L CP C5
U 1 1 59C93753
P 10050 5450
F 0 "C5" H 10075 5550 50  0000 L CNN
F 1 "4700µF 35V" H 9850 5350 50  0000 L CNN
F 2 "Capacitors_ThroughHole:C_Radial_D18_L36_P7.5" H 10088 5300 50  0001 C CNN
F 3 "" H 10050 5450 50  0000 C CNN
	1    10050 5450
	1    0    0    -1  
$EndComp
$Comp
L CP C6
U 1 1 59C93843
P 10350 5450
F 0 "C6" H 10375 5550 50  0000 L CNN
F 1 "4700µF 35V" H 10150 5250 50  0000 L CNN
F 2 "Capacitors_ThroughHole:C_Radial_D18_L36_P7.5" H 10388 5300 50  0001 C CNN
F 3 "" H 10350 5450 50  0000 C CNN
	1    10350 5450
	1    0    0    -1  
$EndComp
Wire Wire Line
	9750 5300 9750 5150
Connection ~ 9750 5150
Wire Wire Line
	10050 5150 10050 5300
Connection ~ 10050 5150
Wire Wire Line
	10350 5300 10350 5150
Connection ~ 10350 5150
Wire Wire Line
	10350 5600 10350 5750
Connection ~ 10350 5750
Wire Wire Line
	10050 5750 10050 5600
Connection ~ 10050 5750
Wire Wire Line
	9750 5600 9750 5750
Connection ~ 9750 5750
$Comp
L CONN_01X02 P1
U 1 1 59CAACEB
P 11750 5600
F 0 "P1" H 11750 5750 50  0000 C CNN
F 1 "OUTPUT" V 11850 5600 50  0000 C CNN
F 2 "myConnectors:JST-B2P-VH" H 11750 5600 50  0001 C CNN
F 3 "" H 11750 5600 50  0000 C CNN
	1    11750 5600
	1    0    0    -1  
$EndComp
Wire Wire Line
	11550 5650 11400 5650
Connection ~ 11400 5650
Wire Wire Line
	11550 5550 11450 5550
Wire Wire Line
	11450 5550 11450 5150
Connection ~ 11450 5150
$EndSCHEMATC
