EESchema Schematic File Version 2
LIBS:ac-filter-rescue
LIBS:power
LIBS:device
LIBS:transistors
LIBS:conn
LIBS:linear
LIBS:regul
LIBS:74xx
LIBS:cmos4000
LIBS:adc-dac
LIBS:memory
LIBS:xilinx
LIBS:microcontrollers
LIBS:dsp
LIBS:microchip
LIBS:analog_switches
LIBS:motorola
LIBS:texas
LIBS:intel
LIBS:audio
LIBS:interface
LIBS:digital-audio
LIBS:philips
LIBS:display
LIBS:cypress
LIBS:siliconi
LIBS:opto
LIBS:atmel
LIBS:contrib
LIBS:valves
LIBS:ac-filter-cache
EELAYER 25 0
EELAYER END
$Descr A4 11693 8268
encoding utf-8
Sheet 1 1
Title ""
Date ""
Rev ""
Comp ""
Comment1 ""
Comment2 ""
Comment3 ""
Comment4 ""
$EndDescr
$Comp
L CONN_01X03 P1
U 1 1 59CAA4A0
P 3550 3200
F 0 "P1" H 3550 3000 50  0000 C CNN
F 1 "AC 230V" H 3850 3200 50  0000 C CNN
F 2 "myConnectors:IEC_THT" H 3550 3200 50  0001 C CNN
F 3 "" H 3550 3200 50  0000 C CNN
	1    3550 3200
	-1   0    0    -1  
$EndComp
$Comp
L C C1
U 1 1 59CAA4A7
P 4900 3550
F 0 "C1" H 4800 3650 50  0000 L CNN
F 1 "680nF" H 4800 3450 50  0000 L CNN
F 2 "myCapacitors:C_Rect_L26_W8_H17_P22.5" H 4938 3400 50  0001 C CNN
F 3 "" H 4900 3550 50  0000 C CNN
	1    4900 3550
	1    0    0    -1  
$EndComp
$Comp
L C C2
U 1 1 59CAA4AE
P 6050 3350
F 0 "C2" H 6075 3450 50  0000 L CNN
F 1 "4.7nF" H 6075 3250 50  0000 L CNN
F 2 "Capacitors_ThroughHole:C_Rect_L13_W4_P10" H 6088 3200 50  0001 C CNN
F 3 "" H 6050 3350 50  0000 C CNN
	1    6050 3350
	1    0    0    -1  
$EndComp
$Comp
L C C3
U 1 1 59CAA4B5
P 6050 3750
F 0 "C3" H 6075 3850 50  0000 L CNN
F 1 "4.7nF" H 6075 3650 50  0000 L CNN
F 2 "Capacitors_ThroughHole:C_Rect_L13_W4_P10" H 6088 3600 50  0001 C CNN
F 3 "" H 6050 3750 50  0000 C CNN
	1    6050 3750
	1    0    0    -1  
$EndComp
$Comp
L Earth_Protective #PWR01
U 1 1 59CAA4BC
P 6300 4150
F 0 "#PWR01" H 6550 3900 50  0001 C CNN
F 1 "Earth_Protective" H 6750 4000 50  0001 C CNN
F 2 "" H 6300 4050 50  0000 C CNN
F 3 "" H 6300 4050 50  0000 C CNN
	1    6300 4150
	1    0    0    -1  
$EndComp
$Comp
L Earth_Protective #PWR02
U 1 1 59CAA4C2
P 4000 4100
F 0 "#PWR02" H 4250 3850 50  0001 C CNN
F 1 "Earth_Protective" H 4450 3950 50  0001 C CNN
F 2 "" H 4000 4000 50  0000 C CNN
F 3 "" H 4000 4000 50  0000 C CNN
	1    4000 4100
	1    0    0    -1  
$EndComp
$Comp
L CONN_01X01 P3
U 1 1 59CAA4CF
P 6600 4300
F 0 "P3" H 6600 4400 50  0000 C CNN
F 1 "CASE" V 6700 4300 50  0000 C CNN
F 2 "Wire_Pads:SolderWirePad_single_1-2mmDrill" H 6600 4300 50  0001 C CNN
F 3 "" H 6600 4300 50  0000 C CNN
	1    6600 4300
	0    1    1    0   
$EndComp
Connection ~ 6300 4100
Wire Wire Line
	6600 4100 6300 4100
Wire Wire Line
	5700 4000 6050 4000
Wire Wire Line
	6050 4000 6450 4000
Wire Wire Line
	5700 3100 6050 3100
Wire Wire Line
	6050 3100 6450 3100
Wire Wire Line
	4900 3100 4900 3400
Wire Wire Line
	4900 4000 4900 3700
Connection ~ 6050 4000
Wire Wire Line
	6050 3500 6050 3550
Wire Wire Line
	6050 3550 6050 3600
Wire Wire Line
	6050 3100 6050 3200
Connection ~ 6050 3100
Wire Wire Line
	4300 3100 4900 3100
Wire Wire Line
	4900 3100 5100 3100
Wire Wire Line
	3750 4000 4900 4000
Wire Wire Line
	4900 4000 5100 4000
Connection ~ 4900 4000
Connection ~ 4900 3100
Wire Wire Line
	6050 3550 6300 3550
Wire Wire Line
	6300 3550 6300 4100
Wire Wire Line
	6300 4100 6300 4150
Connection ~ 6050 3550
Wire Wire Line
	3750 3200 4000 3200
Wire Wire Line
	4000 3200 4000 4100
Wire Wire Line
	5100 3100 5100 3450
Wire Wire Line
	5100 4000 5100 3650
Wire Wire Line
	6450 3100 6450 3450
Wire Wire Line
	6450 4000 6450 3650
Wire Wire Line
	6050 3900 6050 4000
$Comp
L CONN_01X03 P4
U 1 1 59CAA501
P 6800 3550
F 0 "P4" H 6800 3350 50  0000 C CNN
F 1 "AC OUT" H 7100 3550 50  0000 C CNN
F 2 "myConnectors:JST-B3P-VH" H 6800 3550 50  0001 C CNN
F 3 "" H 6800 3550 50  0000 C CNN
	1    6800 3550
	1    0    0    1   
$EndComp
Wire Wire Line
	5700 3650 5700 4000
Wire Wire Line
	3750 3300 3900 3300
Wire Wire Line
	3900 3300 3900 3800
Wire Wire Line
	5700 3100 5700 3450
Wire Wire Line
	6450 3450 6600 3450
Wire Wire Line
	6450 3650 6600 3650
$Comp
L CM-INDUCTOR L1
U 1 1 59CD5D9E
P 5400 3550
F 0 "L1" H 5150 3550 50  0000 C CNN
F 1 "22mH" H 5500 3550 50  0000 C CNN
F 2 "library:inductor-PLA10" V 5400 3450 50  0001 C CNN
F 3 "" V 5400 3450 50  0000 C CNN
	1    5400 3550
	1    0    0    1   
$EndComp
Wire Wire Line
	3750 3100 4100 3100
Wire Wire Line
	3900 3800 3750 3800
Connection ~ 4500 4000
Wire Wire Line
	4500 3800 4500 4000
$Comp
L F_Small F1
U 1 1 59CAA50C
P 4200 3100
F 0 "F1" H 4160 3160 50  0000 L CNN
F 1 "500mA" H 4080 3040 50  0000 L CNN
F 2 "Fuse_Holders_and_Fuses:Fuseholder5x20_horiz_open_inline_Type-I" H 4200 3100 50  0001 C CNN
F 3 "" H 4200 3100 50  0000 C CNN
	1    4200 3100
	1    0    0    -1  
$EndComp
Connection ~ 4500 3100
Wire Wire Line
	4500 3100 4500 3300
$Comp
L VR VR1
U 1 1 59CAA499
P 4500 3550
F 0 "VR1" V 4560 3504 50  0000 C TNN
F 1 "SIOV-S10K275" V 4400 3550 50  0000 C CNN
F 2 "Varistors:RV_Disc_D12_W3.9_P7.5" H 4500 3550 50  0001 C CNN
F 3 "" H 4500 3550 50  0000 C CNN
	1    4500 3550
	1    0    0    -1  
$EndComp
$Comp
L CONN_01X03 P2
U 1 1 59CAA4D6
P 3550 3900
F 0 "P2" H 3550 4100 50  0000 C CNN
F 1 "POWER-SWITCH" H 3950 3900 50  0000 C CNN
F 2 "myConnectors:JST-B3P-VH" H 3550 3900 50  0001 C CNN
F 3 "" H 3550 3900 50  0000 C CNN
	1    3550 3900
	-1   0    0    1   
$EndComp
$EndSCHEMATC
