(export (version D)
  (design
    (source /mnt/sdc1/riton/kicad/power-supply/Labo-power-supply-LT3081/output-control/output-control.sch)
    (date "dim. 19 nov. 2017 13:13:33 CET")
    (tool "Eeschema 4.0.2+dfsg1-stable")
    (sheet (number 1) (name /) (tstamps /)
      (title_block
        (title)
        (company)
        (rev)
        (date)
        (source output-control.sch)
        (comment (number 1) (value ""))
        (comment (number 2) (value ""))
        (comment (number 3) (value ""))
        (comment (number 4) (value "")))))
  (components
    (comp (ref P1)
      (value IN1)
      (footprint myConnectors:JST-B2P-VH)
      (libsource (lib conn) (part CONN_01X02))
      (sheetpath (names /) (tstamps /))
      (tstamp 58B9E391))
    (comp (ref P2)
      (value IN2)
      (footprint myConnectors:JST-B2P-VH)
      (libsource (lib conn) (part CONN_01X02))
      (sheetpath (names /) (tstamps /))
      (tstamp 58B9E427))
    (comp (ref P5)
      (value OUT)
      (footprint myConnectors:JST-B3P-VH)
      (libsource (lib conn) (part CONN_01X03))
      (sheetpath (names /) (tstamps /))
      (tstamp 58B9E617))
    (comp (ref P3)
      (value SW-OUT)
      (footprint Pin_Headers:Pin_Header_Straight_1x02)
      (libsource (lib conn) (part CONN_01X02))
      (sheetpath (names /) (tstamps /))
      (tstamp 58B9EA46))
    (comp (ref P4)
      (value 24V)
      (footprint myConnectors:NINIGI_NS25-W2P)
      (libsource (lib conn) (part CONN_01X02))
      (sheetpath (names /) (tstamps /))
      (tstamp 59C98A60))
    (comp (ref D1)
      (value "RED LED")
      (footprint Pin_Headers:Pin_Header_Straight_1x02)
      (libsource (lib device) (part LED))
      (sheetpath (names /) (tstamps /))
      (tstamp 58BCACB5))
    (comp (ref R2)
      (value 4.7K)
      (footprint Resistors_ThroughHole:Resistor_Horizontal_RM10mm)
      (libsource (lib device) (part R))
      (sheetpath (names /) (tstamps /))
      (tstamp 59C995DF))
    (comp (ref D2)
      (value "BLUE LED")
      (footprint Pin_Headers:Pin_Header_Straight_1x02)
      (libsource (lib device) (part LED))
      (sheetpath (names /) (tstamps /))
      (tstamp 59C997BE))
    (comp (ref K1)
      (value FINDER-40.52.9.024)
      (footprint myRelays:Relay_DPDT_Finder-RT2_RM5mm)
      (libsource (lib relay-dpdt) (part RELAY-DPDT))
      (sheetpath (names /) (tstamps /))
      (tstamp 59C98D55))
    (comp (ref R3)
      (value 3.9K)
      (footprint Resistors_ThroughHole:Resistor_Horizontal_RM10mm)
      (libsource (lib device) (part R))
      (sheetpath (names /) (tstamps /))
      (tstamp 59C99F95))
    (comp (ref P6)
      (value OUT)
      (footprint myConnectors:JST-B3P-VH)
      (libsource (lib conn) (part CONN_01X03))
      (sheetpath (names /) (tstamps /))
      (tstamp 5A1169FA)))
  (libparts
    (libpart (lib conn) (part CONN_01X02)
      (description "Connector 01x02")
      (footprints
        (fp Pin_Header_Straight_1X02)
        (fp Pin_Header_Angled_1X02)
        (fp Socket_Strip_Straight_1X02)
        (fp Socket_Strip_Angled_1X02))
      (fields
        (field (name Reference) P)
        (field (name Value) CONN_01X02))
      (pins
        (pin (num 1) (name P1) (type passive))
        (pin (num 2) (name P2) (type passive))))
    (libpart (lib conn) (part CONN_01X03)
      (description "Connector 01x03")
      (footprints
        (fp Pin_Header_Straight_1X03)
        (fp Pin_Header_Angled_1X03)
        (fp Socket_Strip_Straight_1X03)
        (fp Socket_Strip_Angled_1X03))
      (fields
        (field (name Reference) P)
        (field (name Value) CONN_01X03))
      (pins
        (pin (num 1) (name P1) (type passive))
        (pin (num 2) (name P2) (type passive))
        (pin (num 3) (name P3) (type passive))))
    (libpart (lib device) (part LED)
      (footprints
        (fp LED-3MM)
        (fp LED-5MM)
        (fp LED-10MM)
        (fp LED-0603)
        (fp LED-0805)
        (fp LED-1206)
        (fp LEDV))
      (fields
        (field (name Reference) D)
        (field (name Value) LED))
      (pins
        (pin (num 1) (name K) (type passive))
        (pin (num 2) (name A) (type passive))))
    (libpart (lib device) (part R)
      (description Resistor)
      (footprints
        (fp R_*)
        (fp Resistor_*))
      (fields
        (field (name Reference) R)
        (field (name Value) R))
      (pins
        (pin (num 1) (name ~) (type passive))
        (pin (num 2) (name ~) (type passive))))
    (libpart (lib relay-dpdt) (part RELAY-DPDT)
      (fields
        (field (name Reference) K)
        (field (name Value) RELAY-DPDT))
      (pins
        (pin (num 1) (name 1) (type input))
        (pin (num 2) (name 2) (type input))
        (pin (num C1) (name C1) (type passive))
        (pin (num C2) (name C2) (type passive))
        (pin (num O1) (name O1) (type passive))
        (pin (num O2) (name O2) (type passive))
        (pin (num P1) (name P1) (type passive))
        (pin (num P2) (name P2) (type passive)))))
  (libraries
    (library (logical conn)
      (uri /usr/share/kicad/library/conn.lib))
    (library (logical device)
      (uri /usr/share/kicad/library/device.lib))
    (library (logical relay-dpdt)
      (uri /mnt/sdc1/riton/kicad/library/relay-dpdt.lib)))
  (nets
    (net (code 1) (name "Net-(K1-PadO1)")
      (node (ref P6) (pin 3))
      (node (ref P5) (pin 3))
      (node (ref K1) (pin O1)))
    (net (code 2) (name GND)
      (node (ref P5) (pin 2))
      (node (ref P1) (pin 1))
      (node (ref P6) (pin 2))
      (node (ref P2) (pin 2)))
    (net (code 3) (name "Net-(K1-Pad2)")
      (node (ref K1) (pin 2))
      (node (ref R2) (pin 2))
      (node (ref R3) (pin 2))
      (node (ref P4) (pin 2)))
    (net (code 4) (name "Net-(D2-Pad1)")
      (node (ref D2) (pin 1))
      (node (ref R2) (pin 1)))
    (net (code 5) (name "Net-(D1-Pad1)")
      (node (ref R3) (pin 1))
      (node (ref D1) (pin 1)))
    (net (code 6) (name "Net-(K1-PadC1)")
      (node (ref K1) (pin C1)))
    (net (code 7) (name +24V)
      (node (ref P4) (pin 1))
      (node (ref P3) (pin 1))
      (node (ref D2) (pin 2)))
    (net (code 8) (name "Net-(D1-Pad2)")
      (node (ref P3) (pin 2))
      (node (ref D1) (pin 2))
      (node (ref K1) (pin 1)))
    (net (code 9) (name "Net-(K1-PadO2)")
      (node (ref K1) (pin O2))
      (node (ref P6) (pin 1))
      (node (ref P5) (pin 1)))
    (net (code 10) (name "Net-(K1-PadP1)")
      (node (ref P2) (pin 1))
      (node (ref K1) (pin P1)))
    (net (code 11) (name "Net-(K1-PadP2)")
      (node (ref P1) (pin 2))
      (node (ref K1) (pin P2)))
    (net (code 12) (name "Net-(K1-PadC2)")
      (node (ref K1) (pin C2)))))