EESchema Schematic File Version 2
LIBS:power
LIBS:device
LIBS:transistors
LIBS:conn
LIBS:linear
LIBS:regul
LIBS:74xx
LIBS:cmos4000
LIBS:adc-dac
LIBS:memory
LIBS:xilinx
LIBS:microcontrollers
LIBS:dsp
LIBS:microchip
LIBS:analog_switches
LIBS:motorola
LIBS:texas
LIBS:intel
LIBS:audio
LIBS:interface
LIBS:digital-audio
LIBS:philips
LIBS:display
LIBS:cypress
LIBS:siliconi
LIBS:opto
LIBS:atmel
LIBS:contrib
LIBS:valves
LIBS:relay-dpdt
LIBS:relay-spdt
LIBS:output-control-cache
EELAYER 25 0
EELAYER END
$Descr A4 11693 8268
encoding utf-8
Sheet 1 1
Title ""
Date ""
Rev ""
Comp ""
Comment1 ""
Comment2 ""
Comment3 ""
Comment4 ""
$EndDescr
$Comp
L CONN_01X02 P1
U 1 1 58B9E391
P 3750 2750
F 0 "P1" H 3750 2600 50  0000 C CNN
F 1 "IN1" V 3850 2750 50  0000 C CNN
F 2 "myConnectors:JST-B2P-VH" H 3750 2750 50  0001 C CNN
F 3 "" H 3750 2750 50  0000 C CNN
	1    3750 2750
	-1   0    0    1   
$EndComp
$Comp
L CONN_01X02 P2
U 1 1 58B9E427
P 3750 3050
F 0 "P2" H 3750 3200 50  0000 C CNN
F 1 "IN2" V 3850 3050 50  0000 C CNN
F 2 "myConnectors:JST-B2P-VH" H 3750 3050 50  0001 C CNN
F 3 "" H 3750 3050 50  0000 C CNN
	1    3750 3050
	-1   0    0    -1  
$EndComp
$Comp
L CONN_01X03 P5
U 1 1 58B9E617
P 6850 2900
F 0 "P5" H 6850 3050 50  0000 C CNN
F 1 "OUT" V 6950 2900 50  0000 C CNN
F 2 "myConnectors:JST-B3P-VH" H 6850 2900 50  0001 C CNN
F 3 "" H 6850 2900 50  0000 C CNN
	1    6850 2900
	1    0    0    -1  
$EndComp
$Comp
L CONN_01X02 P3
U 1 1 58B9EA46
P 3750 3800
F 0 "P3" H 3750 3950 50  0000 C CNN
F 1 "SW-OUT" V 3850 3800 50  0000 C CNN
F 2 "Pin_Headers:Pin_Header_Straight_1x02" H 3750 3800 50  0001 C CNN
F 3 "" H 3750 3800 50  0000 C CNN
	1    3750 3800
	-1   0    0    1   
$EndComp
$Comp
L CONN_01X02 P4
U 1 1 59C98A60
P 3750 4150
F 0 "P4" H 3750 4000 50  0000 C CNN
F 1 "24V" V 3850 4150 50  0000 C CNN
F 2 "myConnectors:NINIGI_NS25-W2P" H 3750 4150 50  0001 C CNN
F 3 "" H 3750 4150 50  0000 C CNN
	1    3750 4150
	-1   0    0    -1  
$EndComp
$Comp
L LED D1
U 1 1 58BCACB5
P 6400 4400
F 0 "D1" H 6400 4500 50  0000 C CNN
F 1 "RED LED" H 6400 4300 50  0000 C CNN
F 2 "Pin_Headers:Pin_Header_Straight_1x02" H 6400 4400 50  0001 C CNN
F 3 "" H 6400 4400 50  0000 C CNN
	1    6400 4400
	0    -1   -1   0   
$EndComp
$Comp
L R R2
U 1 1 59C995DF
P 6100 4850
F 0 "R2" V 6180 4850 50  0000 C CNN
F 1 "4.7K" V 6100 4850 50  0000 C CNN
F 2 "Resistors_ThroughHole:Resistor_Horizontal_RM10mm" V 6030 4850 50  0001 C CNN
F 3 "" H 6100 4850 50  0000 C CNN
	1    6100 4850
	1    0    0    -1  
$EndComp
$Comp
L LED D2
U 1 1 59C997BE
P 6100 4400
F 0 "D2" H 6100 4550 50  0000 C CNN
F 1 "BLUE LED" H 6100 4300 50  0000 C CNN
F 2 "Pin_Headers:Pin_Header_Straight_1x02" H 6100 4400 50  0001 C CNN
F 3 "" H 6100 4400 50  0000 C CNN
	1    6100 4400
	0    -1   -1   0   
$EndComp
$Comp
L RELAY-DPDT K1
U 1 1 59C98D55
P 5350 2950
F 0 "K1" H 5300 3350 50  0000 C CNN
F 1 "FINDER-40.52.9.024" H 5350 2450 50  0000 C CNN
F 2 "myRelays:Relay_DPDT_Finder-RT2_RM5mm" H 5350 2950 50  0001 C CNN
F 3 "" H 5350 2950 50  0000 C CNN
	1    5350 2950
	1    0    0    -1  
$EndComp
$Comp
L +24V #PWR01
U 1 1 59C994F7
P 4300 4000
F 0 "#PWR01" H 4300 3850 50  0001 C CNN
F 1 "+24V" H 4300 4140 50  0000 C CNN
F 2 "" H 4300 4000 50  0000 C CNN
F 3 "" H 4300 4000 50  0000 C CNN
	1    4300 4000
	1    0    0    -1  
$EndComp
$Comp
L R R3
U 1 1 59C99F95
P 6400 4850
F 0 "R3" V 6480 4850 50  0000 C CNN
F 1 "3.9K" V 6400 4850 50  0000 C CNN
F 2 "Resistors_ThroughHole:Resistor_Horizontal_RM10mm" V 6330 4850 50  0001 C CNN
F 3 "" H 6400 4850 50  0000 C CNN
	1    6400 4850
	1    0    0    -1  
$EndComp
$Comp
L CONN_01X03 P6
U 1 1 5A1169FA
P 6850 3400
F 0 "P6" H 6850 3550 50  0000 C CNN
F 1 "OUT" V 6950 3400 50  0000 C CNN
F 2 "myConnectors:JST-B3P-VH" H 6850 3400 50  0001 C CNN
F 3 "" H 6850 3400 50  0000 C CNN
	1    6850 3400
	1    0    0    -1  
$EndComp
Wire Wire Line
	3950 2700 4950 2700
Wire Wire Line
	3950 3750 6400 3750
Wire Wire Line
	4400 2800 3950 2800
Wire Wire Line
	3950 3000 4950 3000
Wire Wire Line
	5750 2800 6650 2800
Wire Wire Line
	4400 2800 4400 3550
Wire Wire Line
	3950 4100 6100 4100
Wire Wire Line
	4050 4100 4050 3850
Wire Wire Line
	4050 3850 3950 3850
Wire Wire Line
	5750 3100 6000 3100
Wire Wire Line
	4600 3750 4600 3200
Wire Wire Line
	6000 3000 6650 3000
Wire Wire Line
	6300 2900 6650 2900
Wire Wire Line
	4600 3200 4950 3200
Connection ~ 4600 3750
Wire Wire Line
	4850 4200 4850 3300
Wire Wire Line
	4850 3300 4950 3300
Wire Wire Line
	4400 3550 6300 3550
Wire Wire Line
	6300 3550 6300 2900
Wire Wire Line
	6000 3100 6000 3000
Wire Wire Line
	3950 3100 4400 3100
Connection ~ 4400 3100
Connection ~ 4050 4100
Wire Wire Line
	6400 5100 6400 5000
Wire Wire Line
	6400 3750 6400 4200
Wire Wire Line
	4300 4100 4300 4000
Wire Wire Line
	5750 5100 6400 5100
Wire Wire Line
	3950 4200 5750 4200
Connection ~ 4850 4200
Wire Wire Line
	5750 4200 5750 5100
Wire Wire Line
	6100 4100 6100 4200
Connection ~ 4300 4100
Wire Wire Line
	6400 4600 6400 4700
Wire Wire Line
	6100 4700 6100 4600
Connection ~ 6100 5100
Wire Wire Line
	6100 5000 6100 5100
Wire Wire Line
	6650 3300 6500 3300
Wire Wire Line
	6500 3300 6500 2800
Connection ~ 6500 2800
Wire Wire Line
	6650 3400 6300 3400
Connection ~ 6300 3400
Wire Wire Line
	6650 3500 6400 3500
Wire Wire Line
	6400 3500 6400 3000
Connection ~ 6400 3000
Wire Wire Line
	4200 3200 4200 3100
Connection ~ 4200 3100
$Comp
L GND #PWR03
U 1 1 5A11773C
P 4200 3200
F 0 "#PWR03" H 4200 2950 50  0001 C CNN
F 1 "GND" H 4200 3050 50  0000 C CNN
F 2 "" H 4200 3200 50  0000 C CNN
F 3 "" H 4200 3200 50  0000 C CNN
	1    4200 3200
	1    0    0    -1  
$EndComp
$EndSCHEMATC
