EESchema Schematic File Version 2
LIBS:power
LIBS:device
LIBS:transistors
LIBS:conn
LIBS:linear
LIBS:regul
LIBS:74xx
LIBS:cmos4000
LIBS:adc-dac
LIBS:memory
LIBS:xilinx
LIBS:microcontrollers
LIBS:dsp
LIBS:microchip
LIBS:analog_switches
LIBS:motorola
LIBS:texas
LIBS:intel
LIBS:audio
LIBS:interface
LIBS:digital-audio
LIBS:philips
LIBS:display
LIBS:cypress
LIBS:siliconi
LIBS:opto
LIBS:atmel
LIBS:contrib
LIBS:valves
LIBS:lt3081
LIBS:JQC-3F
LIBS:ina219-module
LIBS:arduino
LIBS:+20v
LIBS:mcp1702
LIBS:tl431
LIBS:display-1602
LIBS:multimeter-cache
EELAYER 25 0
EELAYER END
$Descr A4 11693 8268
encoding utf-8
Sheet 1 1
Title ""
Date ""
Rev ""
Comp ""
Comment1 ""
Comment2 ""
Comment3 ""
Comment4 ""
$EndDescr
$Comp
L C C6
U 1 1 59C70925
P 5600 5650
F 0 "C6" H 5625 5750 50  0000 L CNN
F 1 "1µF MLCC Y5V" H 5350 5550 50  0000 L CNN
F 2 "Capacitors_ThroughHole:C_Rect_L7_W2_P5" H 5638 5500 50  0001 C CNN
F 3 "" H 5600 5650 50  0000 C CNN
	1    5600 5650
	1    0    0    -1  
$EndComp
$Comp
L C C5
U 1 1 59C70939
P 4500 5650
F 0 "C5" H 4525 5750 50  0000 L CNN
F 1 "1µF MLCC Y5V" H 4250 5550 50  0000 L CNN
F 2 "Capacitors_ThroughHole:C_Rect_L7_W2_P5" H 4538 5500 50  0001 C CNN
F 3 "" H 4500 5650 50  0000 C CNN
	1    4500 5650
	1    0    0    -1  
$EndComp
$Comp
L GND #PWR01
U 1 1 59C70B1C
P 8000 2500
F 0 "#PWR01" H 8000 2250 50  0001 C CNN
F 1 "GND" H 8000 2350 50  0000 C CNN
F 2 "" H 8000 2500 50  0000 C CNN
F 3 "" H 8000 2500 50  0000 C CNN
	1    8000 2500
	1    0    0    -1  
$EndComp
$Comp
L +20V #PWR02
U 1 1 59C70DEA
P 4200 5300
F 0 "#PWR02" H 4200 5150 50  0001 C CNN
F 1 "+20V" H 4200 5450 50  0000 C CNN
F 2 "" H 4200 5300 50  0000 C CNN
F 3 "" H 4200 5300 50  0000 C CNN
	1    4200 5300
	1    0    0    -1  
$EndComp
$Comp
L GND #PWR03
U 1 1 59C70F16
P 4200 6000
F 0 "#PWR03" H 4200 5750 50  0001 C CNN
F 1 "GND" H 4200 5850 50  0000 C CNN
F 2 "" H 4200 6000 50  0000 C CNN
F 3 "" H 4200 6000 50  0000 C CNN
	1    4200 6000
	1    0    0    -1  
$EndComp
$Comp
L +5V #PWR04
U 1 1 59C71494
P 5900 5300
F 0 "#PWR04" H 5900 5150 50  0001 C CNN
F 1 "+5V" H 5900 5440 50  0000 C CNN
F 2 "" H 5900 5300 50  0000 C CNN
F 3 "" H 5900 5300 50  0000 C CNN
	1    5900 5300
	1    0    0    -1  
$EndComp
$Comp
L +5V #PWR05
U 1 1 59C71650
P 8300 2200
F 0 "#PWR05" H 8300 2050 50  0001 C CNN
F 1 "+5V" H 8300 2340 50  0000 C CNN
F 2 "" H 8300 2200 50  0000 C CNN
F 3 "" H 8300 2200 50  0000 C CNN
	1    8300 2200
	1    0    0    -1  
$EndComp
$Comp
L GND #PWR06
U 1 1 59C72D1C
P 8900 3700
F 0 "#PWR06" H 8900 3450 50  0001 C CNN
F 1 "GND" H 8900 3550 50  0000 C CNN
F 2 "" H 8900 3700 50  0000 C CNN
F 3 "" H 8900 3700 50  0000 C CNN
	1    8900 3700
	1    0    0    -1  
$EndComp
$Comp
L R R15
U 1 1 59C763A9
P 7100 4950
F 0 "R15" V 7180 4950 50  0000 C CNN
F 1 "1.8K" V 7100 4950 50  0000 C CNN
F 2 "Resistors_ThroughHole:Resistor_Horizontal_RM10mm" V 7030 4950 50  0001 C CNN
F 3 "" H 7100 4950 50  0000 C CNN
	1    7100 4950
	1    0    0    -1  
$EndComp
$Comp
L +5V #PWR07
U 1 1 59C76772
P 7100 4700
F 0 "#PWR07" H 7100 4550 50  0001 C CNN
F 1 "+5V" H 7100 4840 50  0000 C CNN
F 2 "" H 7100 4700 50  0000 C CNN
F 3 "" H 7100 4700 50  0000 C CNN
	1    7100 4700
	1    0    0    -1  
$EndComp
$Comp
L GND #PWR08
U 1 1 59C76976
P 7600 5900
F 0 "#PWR08" H 7600 5650 50  0001 C CNN
F 1 "GND" H 7600 5750 50  0000 C CNN
F 2 "" H 7600 5900 50  0000 C CNN
F 3 "" H 7600 5900 50  0000 C CNN
	1    7600 5900
	1    0    0    -1  
$EndComp
$Comp
L C C7
U 1 1 59C76D65
P 7100 5750
F 0 "C7" H 7125 5850 50  0000 L CNN
F 1 "100nF" H 7000 5650 50  0000 L CNN
F 2 "Capacitors_ThroughHole:C_Rect_L7_W2_P5" H 7138 5600 50  0001 C CNN
F 3 "" H 7100 5750 50  0000 C CNN
	1    7100 5750
	1    0    0    -1  
$EndComp
$Comp
L TL431 U5
U 1 1 59C710B5
P 7600 5550
F 0 "U5" H 7750 5355 60  0000 C CNN
F 1 "TL431" H 7600 5750 60  0000 C CNN
F 2 "TO_SOT_Packages_THT:TO-92_Inline_Wide" H 7600 5550 60  0001 C CNN
F 3 "" H 7600 5550 60  0000 C CNN
	1    7600 5550
	1    0    0    -1  
$EndComp
$Comp
L GND #PWR09
U 1 1 59C71C75
P 7100 6000
F 0 "#PWR09" H 7100 5750 50  0001 C CNN
F 1 "GND" H 7100 5850 50  0000 C CNN
F 2 "" H 7100 6000 50  0000 C CNN
F 3 "" H 7100 6000 50  0000 C CNN
	1    7100 6000
	1    0    0    -1  
$EndComp
$Comp
L LM7805CT U4
U 1 1 59C72406
P 5000 5450
F 0 "U4" H 4800 5650 50  0000 C CNN
F 1 "LM7805CT" H 4900 5650 50  0000 L CNN
F 2 "TO_SOT_Packages_THT:TO-220_Neutral123_Horizontal_LargePads" H 5000 5550 50  0001 C CIN
F 3 "" H 5000 5450 50  0000 C CNN
	1    5000 5450
	1    0    0    -1  
$EndComp
Text GLabel 8200 2900 1    60   Input ~ 0
TEMP
Text GLabel 8500 2900 1    60   Input ~ 0
IMON
Text GLabel 8350 2900 1    60   Input ~ 0
ILIM
$Comp
L CONN_01X06 P1
U 1 1 59D453BF
P 9200 3350
F 0 "P1" H 9200 3700 50  0000 C CNN
F 1 "POWER-SUPPLY" V 9300 3350 50  0000 C CNN
F 2 "Pin_Headers:Pin_Header_Straight_1x06" H 9200 3350 50  0001 C CNN
F 3 "" H 9200 3350 50  0000 C CNN
	1    9200 3350
	1    0    0    -1  
$EndComp
$Comp
L +20V #PWR010
U 1 1 59D46107
P 8900 3000
F 0 "#PWR010" H 8900 2850 50  0001 C CNN
F 1 "+20V" H 8900 3150 50  0000 C CNN
F 2 "" H 8900 3000 50  0000 C CNN
F 3 "" H 8900 3000 50  0000 C CNN
	1    8900 3000
	1    0    0    -1  
$EndComp
Text GLabel 8650 2900 1    60   Input ~ 0
VOUT
$Comp
L GND #PWR011
U 1 1 59D47B37
P 2300 4100
F 0 "#PWR011" H 2300 3850 50  0001 C CNN
F 1 "GND" H 2300 3950 50  0000 C CNN
F 2 "" H 2300 4100 50  0000 C CNN
F 3 "" H 2300 4100 50  0000 C CNN
	1    2300 4100
	1    0    0    -1  
$EndComp
$Comp
L +5V #PWR012
U 1 1 59D47BB3
P 2000 3200
F 0 "#PWR012" H 2000 3050 50  0001 C CNN
F 1 "+5V" H 2000 3340 50  0000 C CNN
F 2 "" H 2000 3200 50  0000 C CNN
F 3 "" H 2000 3200 50  0000 C CNN
	1    2000 3200
	1    0    0    -1  
$EndComp
$Comp
L POT RV1
U 1 1 59D47C51
P 2000 3750
F 0 "RV1" H 2000 3670 50  0000 C CNN
F 1 "10K" H 2000 3750 50  0000 C CNN
F 2 "Potentiometers:Potentiometer_VishaySpectrol-Econtrim-Type36k" H 2000 3750 50  0001 C CNN
F 3 "" H 2000 3750 50  0000 C CNN
	1    2000 3750
	0    1    1    0   
$EndComp
$Comp
L DISPLAY-1602 DS1
U 1 1 59D47EBC
P 3050 2900
F 0 "DS1" H 2250 3300 50  0000 C CNN
F 1 "DISPLAY-1602" H 3750 3300 50  0000 C CNN
F 2 "library:WC1602A" H 3050 2850 50  0000 C CIN
F 3 "" H 3050 2900 50  0000 C CNN
	1    3050 2900
	1    0    0    -1  
$EndComp
$Comp
L R R1
U 1 1 59D47F15
P 4300 2750
F 0 "R1" V 4380 2750 50  0000 C CNN
F 1 "680" V 4300 2750 50  0000 C CNN
F 2 "Resistors_ThroughHole:Resistor_Horizontal_RM10mm" V 4230 2750 50  0001 C CNN
F 3 "" H 4300 2750 50  0000 C CNN
	1    4300 2750
	1    0    0    -1  
$EndComp
$Comp
L +5V #PWR013
U 1 1 59D47FAC
P 4300 2500
F 0 "#PWR013" H 4300 2350 50  0001 C CNN
F 1 "+5V" H 4300 2640 50  0000 C CNN
F 2 "" H 4300 2500 50  0000 C CNN
F 3 "" H 4300 2500 50  0000 C CNN
	1    4300 2500
	1    0    0    -1  
$EndComp
$Comp
L GND #PWR014
U 1 1 59D4809D
P 4200 3200
F 0 "#PWR014" H 4200 2950 50  0001 C CNN
F 1 "GND" H 4200 3050 50  0000 C CNN
F 2 "" H 4200 3200 50  0000 C CNN
F 3 "" H 4200 3200 50  0000 C CNN
	1    4200 3200
	1    0    0    -1  
$EndComp
Wire Wire Line
	7800 3100 9000 3100
Wire Wire Line
	8000 3250 7800 3250
Wire Wire Line
	8100 3400 7800 3400
Wire Wire Line
	8200 3550 7800 3550
Wire Wire Line
	8300 2350 7800 2350
Wire Wire Line
	8300 2200 8300 2350
Connection ~ 8100 5200
Wire Wire Line
	7100 6000 7100 5900
Connection ~ 7100 5500
Wire Wire Line
	7100 4700 7100 4800
Connection ~ 7100 5200
Wire Wire Line
	7600 5800 7600 5900
Wire Wire Line
	8100 5500 8000 5500
Wire Wire Line
	7100 5200 8100 5200
Wire Wire Line
	7100 5100 7100 5600
Wire Wire Line
	7100 5500 7200 5500
Wire Wire Line
	2800 3850 5750 3850
Wire Wire Line
	2600 4000 5750 4000
Wire Wire Line
	5550 2500 5550 3500
Wire Wire Line
	5450 2650 5450 3550
Wire Wire Line
	5350 2800 5350 3600
Wire Wire Line
	5250 2950 5250 3650
Wire Wire Line
	5900 5400 5900 5300
Wire Wire Line
	4200 6000 4200 5900
Wire Wire Line
	4200 5300 4200 5400
Connection ~ 5000 5900
Wire Wire Line
	5000 5900 5000 5700
Connection ~ 4500 5400
Wire Wire Line
	4500 5400 4500 5500
Connection ~ 4500 5900
Wire Wire Line
	4500 5900 4500 5800
Wire Wire Line
	4200 5900 5600 5900
Wire Wire Line
	4200 5400 4600 5400
Wire Wire Line
	5600 5400 5600 5500
Wire Wire Line
	5400 5400 5900 5400
Wire Wire Line
	5600 5900 5600 5800
Connection ~ 5600 5400
Wire Wire Line
	7800 3700 8100 3700
Wire Wire Line
	8100 3700 8100 5500
Wire Wire Line
	2600 4000 2600 3400
Wire Wire Line
	2800 3400 2800 3850
Wire Wire Line
	5550 3500 3600 3500
Wire Wire Line
	3600 3500 3600 3400
Wire Wire Line
	5450 3550 3500 3550
Wire Wire Line
	3500 3550 3500 3400
Wire Wire Line
	5350 3600 3400 3600
Wire Wire Line
	3400 3600 3400 3400
Wire Wire Line
	5250 3650 3300 3650
Wire Wire Line
	3300 3650 3300 3400
Wire Wire Line
	2300 3400 2300 4100
Wire Wire Line
	2000 3200 2000 3600
Wire Wire Line
	2000 3500 2400 3500
Wire Wire Line
	2400 3500 2400 3400
Connection ~ 2000 3500
Wire Wire Line
	2300 4000 2000 4000
Wire Wire Line
	2000 4000 2000 3900
Connection ~ 2300 4000
Wire Wire Line
	2150 3750 2500 3750
Wire Wire Line
	2500 3750 2500 3400
Wire Wire Line
	4300 2500 4300 2600
Wire Wire Line
	4300 2900 4300 3000
Wire Wire Line
	4300 3000 4100 3000
Wire Wire Line
	4200 3200 4200 2800
Wire Wire Line
	4200 2800 4100 2800
Wire Wire Line
	8000 3200 9000 3200
Wire Wire Line
	8000 3200 8000 3250
Wire Wire Line
	8100 3400 8100 3300
Wire Wire Line
	8100 3300 9000 3300
Wire Wire Line
	8200 3400 9000 3400
Wire Wire Line
	8200 3400 8200 3550
Wire Wire Line
	8200 2900 8200 3100
Connection ~ 8200 3100
Wire Wire Line
	8900 3500 9000 3500
Wire Wire Line
	9000 3600 8900 3600
Wire Wire Line
	8900 3600 8900 3700
Wire Wire Line
	8650 2900 8650 3300
Connection ~ 8650 3300
Wire Wire Line
	8350 2900 8350 3400
Connection ~ 8350 3400
Wire Wire Line
	8500 2900 8500 3200
Connection ~ 8500 3200
Wire Wire Line
	5250 2950 5750 2950
Wire Wire Line
	5350 2800 5750 2800
Wire Wire Line
	5450 2650 5750 2650
Wire Wire Line
	5550 2500 5750 2500
$Comp
L arduino_nano U3
U 1 1 59C74F33
P 7100 3150
F 0 "U3" H 7400 2100 70  0000 C CNN
F 1 "ARDUINO NANO" H 7400 2350 70  0000 C CNN
F 2 "myMicroControllers:Arduino-nano" H 7400 1650 60  0001 C CNN
F 3 "" H 7100 3150 60  0000 C CNN
	1    7100 3150
	-1   0    0    1   
$EndComp
Wire Wire Line
	8000 2500 8000 2050
Wire Wire Line
	8000 2050 7800 2050
Wire Wire Line
	8900 3500 8900 3000
$Comp
L GND #PWR015
U 1 1 59EB22B4
P 2700 4100
F 0 "#PWR015" H 2700 3850 50  0001 C CNN
F 1 "GND" H 2700 3950 50  0000 C CNN
F 2 "" H 2700 4100 50  0000 C CNN
F 3 "" H 2700 4100 50  0000 C CNN
	1    2700 4100
	1    0    0    -1  
$EndComp
Wire Wire Line
	2700 4100 2700 3400
$EndSCHEMATC
